Steam_Tidy
…
Games_Tidy$`Publisher Class` <- lapply(Games_Tidy$`Publisher Class`, split_genres_games)

# Rearrange the date values in the dataset
Games_Tidy$`First Released` <- as.Date(Games_Tidy$`First Released`, format = "%b %d, %Y")

# Converts all FREE values in price to 0.00
Games_Tidy$Price[Games_Tidy$Price == "Free"] <- "$0.00"

# Removes dollar sign and converts them to doubles
Games_Tidy$Price <- as.numeric(gsub("\\$", "", Games_Tidy$Price))

# Now, the 'Reviews' column contains the converted values
print(Games_Tidy)

# A tibble: 260 × 12
   Name          `First Released` Price `Est. Revenue` `Est. Units Sold` Reviews
   <chr>         <date>           <dbl>          <dbl>             <dbl>   <dbl>
 1 Counter-Stri… 2012-08-20        0         543700000          88600000 7600000
 2 PUBG: BATTLE… 2017-12-20        0        1200000000          56700000 2200000
 3 Dota 2        2013-07-08        0                 0          88100000 2100000
 4 Grand Theft … 2015-04-12        0         673600000          25500000 1600000
 5 Terraria      2011-05-15        9.99      160600000          23800000 1200000
 6 Tom Clancy's… 2015-11-30       20.0       259000000          18700000 1200000
 7 Garry's Mod   2022-05-24        9.99      147600000          21900000 1000000
 8 Team Fortres… 2022-05-24        0                 0          77200000  991000
 9 Rust          2018-02-07       40.0       287100000          14200000  966000
10 Left 4 Dead 2 2022-05-24        9.99      479200000          58600000  782000
# ℹ 250 more rows
# ℹ 6 more variables: Followers <dbl>, `Steam Rating` <chr>, Genres <list>,
#   Developers <list>, Publishers <list>, `Publisher Class` <list>

Tiding the Devs dataset

Dev_Tidy$`Total revenue` <- sapply(Dev_Tidy$`Total revenue`, convert_revenue)
Dev_Tidy$`Avg revenue per game` <- sapply(Dev_Tidy$`Avg revenue per game`, convert_revenue)

print(Dev_Tidy)

# A tibble: 260 × 19
     `#` Name                 Classification `Released games` `Unreleased games`
   <dbl> <chr>                <chr>                     <dbl>              <dbl>
 1     1 Valve                AAA                          37                  1
 2     2 Feral Interactive (… AA                           46                  0
 3     3 Feral Interactive (… AA                           30                  0
 4     4 CD PROJEKT RED       AA                            9                  0
 5     5 KRAFTON, Inc.        AA                            3                  0
 6     6 Aspyr (Mac)          AA                           12                  0
 7     7 Treyarch             AAA                          11                  0
 8     8 Capcom Co. Ltd       AAA                          53                  2
 9     9 Bethesda Game Studi… AAA                          12                  0
10    10 Ubisoft Montreal     AAA                          38                  0
# ℹ 250 more rows
# ℹ 14 more variables: `Total revenue` <dbl>, `Avg revenue per game` <dbl>,
#   `HQ country` <chr>, `% developed in-house` <dbl>, `% indie releases` <dbl>,
#   Action <dbl>, Casual <dbl>, Adventure <dbl>, Simulation <dbl>,
#   Strategy <dbl>, RPG <dbl>, MMO <dbl>, Racing <dbl>, Sports <dbl>
…
steam$categories <- sapply(steam$categories, split_genres_steam)

steam$platforms <- sapply(steam$platforms, split_genres_steam)

steam$developer <- sapply(steam$developer, split_genres_steam)

steam$publisher <- sapply(steam$publisher, split_genres_steam)

# Access the third element (Multiplayer) in the split data
desired_element <- steam$genres

print(steam)

# A tibble: 27,075 × 18
   appid name    release_date english developer publisher platforms required_age
   <dbl> <chr>   <date>         <dbl> <named l> <named l> <named l>        <dbl>
 1    10 Counte… 2000-11-01         1 <chr [1]> <chr [1]> <chr [3]>            0
 2    20 Team F… 1999-04-01         1 <chr [1]> <chr [1]> <chr [3]>            0
 3    30 Day of… 2003-05-01         1 <chr [1]> <chr [1]> <chr [3]>            0
 4    40 Deathm… 2001-06-01         1 <chr [1]> <chr [1]> <chr [3]>            0
 5    50 Half-L… 1999-11-01         1 <chr [1]> <chr [1]> <chr [3]>            0
 6    60 Ricoch… 2000-11-01         1 <chr [1]> <chr [1]> <chr [3]>            0
 7    70 Half-L… 1998-11-08         1 <chr [1]> <chr [1]> <chr [3]>            0
 8    80 Counte… 2004-03-01         1 <chr [1]> <chr [1]> <chr [3]>            0
 9   130 Half-L… 2001-06-01         1 <chr [1]> <chr [1]> <chr [3]>            0
10   220 Half-L… 2004-11-16         1 <chr [1]> <chr [1]> <chr [3]>            0
# ℹ 27,065 more rows
# ℹ 10 more variables: categories <named list>, genres <named list>,
#   steamspy_tags <named list>, achievements <dbl>, positive_ratings <dbl>,
#   negative_ratings <dbl>, average_playtime <dbl>, median_playtime <dbl>,
#   owners <chr>, price <dbl>
…
